…
<img src="tools/readme/README-wcs-1.png" width="100%" />

`geomet_wcs_data()` downloads the query result to a GeoTIFF file in a
temporary directory. Restarting your R session will clear these
temporary files.

## OGC API Data

You can get a full list of the collections available with

``` r
geomet_api_collections()
#> # A tibble: 72 x 2
#>    collection                                                   collection_id   
#>    <chr>                                                        <chr>           
#>  1 Hydrometric Monitoring Stations                              hydrometric-sta~
#>  2 Daily Mean of Water Level or Flow                            hydrometric-dai~
#>  3 Monthly Mean of Water Level or Flow                          hydrometric-mon~
#>  4 Annual Maximum and Minimum Daily Water Level or Flow         hydrometric-ann~
#>  5 Annual Maximum and Minimum Instantaneous Water Level or Flow hydrometric-ann~
#>  6 Real-time hydrometric data                                   hydrometric-rea~
#>  7 1981-2010 Climate Normals                                    climate-normals 
#>  8 Climate Stations                                             climate-stations
#>  9 Monthly Climate Observation Summaries                        climate-monthly 
#> 10 Daily Climate Observations                                   climate-daily   
#> # ... with 62 more rows
```
…
